{
    "faction":"pirates",
    "firstname":"Raccoon",
    "lastname":"The Inventor",
    "gender":"M",    # M/F/N  (Male, female, any)
    "officerlevel":-1, # Per default if -1, put the officerLevel max of your settings.
    "officerPersonality":"aggressive",
    "mainShip":"GladiatorSociety_lasher_Raccoon", # Flag Ship variant
    "advships":[["GladiatorSociety_lasher_Raccoon",11,"aggressive"],["lasher_luddic_path_Raider",14,"aggressive"]],
    "randomFleet":false, # If random fleet(from the faction) will be added.
    "dsrandom":1,
    "reward":175000, # Bounty reward.
    "description":"Raccoon searches to entertain the public with his sheer swarm of ships. This isn't a hard Gladiator. But he knows how he likes his matches.",
    "dialog":"DESTROYYYEIOHRIUGREGLRGRMRIGHGRGRO EVERYTHINGGGEFIORGHREHMRGUEIIQRGUEIA",

    "avatar":"graphics/portraits/GladiatorSociety_HollowKnight.png", # Portrait of the Gladiator
}
