{
  "randomFleet":true,
  "reward":1000000,
  "combatPoints":160,
  "description":"This Gladiator prefers Frigates over Capitals. Easy opponent? We shall see.",
  "dialog":"Don't focus me...to your peril...",
}
