{
  "faction":"remnant",
  "randomFleet":true,
  "dsrandom":2,
  "reward":5000000,
  "needBounty":"Derelict",
  "combatPoints":300,
  "description":"Society offers you these training missions in order to please the public (and kill you)",
  "dialog":"Number of kills: 0. Finally, maybe one. Thank you for have kill my friend.",
}
